{
  "name": "<%= _.slugify(app) %>",
  "dependencies": {},
  "devDependencies": {
    "grunt": "~0.4.1",
    "grunt-contrib-clean": "~0.5.0",
    "grunt-contrib-coffee": "~0.7.0",
    "grunt-contrib-compass": "~0.5.0",
    "grunt-contrib-concat": "~0.3.0",
    "grunt-contrib-connect": "~0.7.1",
    "grunt-contrib-copy": "~0.4.1",
    "grunt-contrib-cssmin": "~0.6.0",
    "grunt-contrib-htmlmin": "~0.1.3",
    "grunt-contrib-jshint": "~0.6.0",
    "grunt-contrib-less": "~0.11.0",
    "grunt-contrib-imagemin": "~0.2.0",
    "grunt-contrib-uglify": "~0.2.0",
    "grunt-contrib-watch": "~0.6.1",
    "grunt-autoprefixer": "~0.2.0",
    "grunt-coffeelint": "0.0.6",
    "grunt-concurrent": "~0.3.0",
    "grunt-rev": "~0.1.0",
    "grunt-svgmin": "~0.2.0",
    "grunt-usemin": "~2.1.0",
    "path": "~0.4.9",
    "q": "~0.9.5",
    "request": "~2.21.0",
    "time-grunt": "~0.1.0",
    "underscore": "~1.4.4",
    "uglify-js": "~2.4.3",
    "load-grunt-tasks": "~0.2.0",
    "grunt-angular-templates": "~0.5.1"
  },
  "engines": {
    "node": ">=0.8.0"
  },
  "scripts": {
    "test": "grunt test",
    "server": "grunt server",
    "build": "grunt build"
  },
  "config": {
    "module": "<%= package %>.<%= app %>"
  }
}
